tests/counter_up/iverilog.vcd
$date
	Tue Mar 14 14:31:08 2023
$end
$version
	Icarus Verilog
$end
$timescale
	1ps
$end
$scope module testbench $end
$var wire 1 ! reset_i $end
$var wire 1 " error_counter_o $end
$var wire 4 # count_o [3:0] $end
$var wire 1 $ clk_i $end
$var reg 4 % correct_count_o [3:0] $end
$var reg 1 & reset_done $end
$var reg 1 ' up_i $end
$var integer 32 ( itervar [31:0] $end
$scope module cg $end
$var reg 1 $ clk_o $end
$upscope $end
$scope module dut $end
$var wire 1 $ clk_i $end
$var wire 1 ' up_i $end
$var wire 1 ! reset_i $end
$var wire 4 ) count_o [3:0] $end
$var reg 4 * count_n [3:0] $end
$var reg 4 + count_r [3:0] $end
$upscope $end
$scope module rg $end
$var wire 1 , clk_i $end
$var wire 1 - phase_lo_r $end
$var wire 1 . phase_hi_r $end
$var wire 1 / in_phase_2 $end
$var wire 1 0 in_phase_1 $end
$var wire 1 ! async_reset_o $end
$var reg 4 1 ctr_hi_r [3:0] $end
$var reg 1 2 ctr_lo_r $end
$scope begin rof[0] $end
$upscope $end
$upscope $end
$upscope $end
$enddefinitions $end
#0
$dumpvars
02
b0 1
00
0/
0.
0-
0,
b0 +
b0 *
b0 )
b0 (
x'
0&
b0 %
0$
b0 #
0"
0!
$end
#5000
1,
1$
#10000
1!
10
1-
12
b1 *
1'
0,
0$
#15000
1,
1$
#20000
b1 1
0,
0$
#25000
1,
1$
#30000
b10 1
0,
0$
#35000
1,
1$
#40000
b11 1
0,
0$
#45000
1,
1$
#50000
b100 1
0,
0$
#55000
1,
1$
#60000
b101 1
0,
0$
#65000
1,
1$
#70000
b110 1
0,
0$
#75000
1,
1$
#80000
b111 1
0,
0$
#85000
1,
1$
#90000
b1000 1
0,
0$
#95000
1,
1$
#100000
b1001 1
0,
0$
#105000
1,
1$
#110000
1&
0!
1/
1.
b1010 1
0,
0$
#115000
b10 *
b1 #
b1 )
b1 +
b1 (
0"
b1 %
1,
1$
#120000
0,
0$
#125000
b11 *
b10 #
b10 )
b10 +
b10 (
0"
b10 %
1,
1$
#130000
0,
0$
#135000
b100 *
b11 #
b11 )
b11 +
b11 (
0"
b11 %
1,
1$
#140000
0,
0$
#145000
b101 *
b100 #
b100 )
b100 +
b100 (
0"
b100 %
1,
1$
#150000
0,
0$
#155000
b110 *
b101 #
b101 )
b101 +
b101 (
0"
b101 %
1,
1$
#160000
0,
0$
#165000
b111 *
b110 #
b110 )
b110 +
b110 (
0"
b110 %
1,
1$
#170000
0,
0$
#175000
b1000 *
b111 #
b111 )
b111 +
b111 (
0"
b111 %
1,
1$
#180000
0,
0$
#185000
b1001 *
b1000 #
b1000 )
b1000 +
b1000 (
0"
b1000 %
1,
1$
#190000
0,
0$
#195000
b1010 *
b1001 #
b1001 )
b1001 +
b1001 (
0"
b1001 %
1,
1$
#200000
0,
0$
#205000
b1011 *
b1010 #
b1010 )
b1010 +
b1010 (
0"
b1010 %
1,
1$
#210000
0,
0$
#215000
b1100 *
b1011 #
b1011 )
b1011 +
b1011 (
0"
b1011 %
1,
1$
#220000
0,
0$
#225000
b1101 *
b1100 #
b1100 )
b1100 +
b1100 (
0"
b1100 %
1,
1$
#230000
0,
0$
#235000
b1110 *
b1101 #
b1101 )
b1101 +
b1101 (
0"
b1101 %
1,
1$
#240000
0,
0$
#245000
b1111 *
b1110 #
b1110 )
b1110 +
b1110 (
0"
b1110 %
1,
1$
#250000
0,
0$
#255000
b0 *
b1111 #
b1111 )
b1111 +
b1111 (
0"
b1111 %
1,
1$
#260000
0,
0$
#265000
b1 *
b0 #
b0 )
b0 +
b10000 (
0"
b0 %
1,
1$
